# (1 for numeric, 2 for nominal)=(1 for number, 2 for binary)
id=2=1
invest=1
productid=2=2
groupid=2=2
currency=2=2
custid=2=2
time=1
platform=2=2
eventid=2=2
a0=2=1
a1=2=1
a2=2=1
a3=2=1
a4=2=1
a5=2=1
a6=2=1
a7=2=1
a8=2=1
a9=2=1
b0=2=1
b1=2=1
b2=2=1
b3=2=1
b4=2=1
b5=2=1
b6=2=1
b7=2=1
b8=2=1
b9=2=1
